<svg width="16" height="17" viewBox="0 0 16 17" fill="none" xmlns="http://www.w3.org/2000/svg">
<path d="M7.99984 8.06209C10.6505 8.06209 13.3332 7.14609 13.3332 5.39543C13.3332 3.64476 10.6505 2.72876 7.99984 2.72876C5.34917 2.72876 2.6665 3.64476 2.6665 5.39543C2.6665 7.14609 5.34917 8.06209 7.99984 8.06209Z" fill="#D7D8DD"/>
<path d="M2.6665 8.06209C2.6665 9.81276 5.34917 10.7288 7.99984 10.7288C10.6505 10.7288 13.3332 9.81276 13.3332 8.06209V6.72876C13.3332 8.47943 10.6505 9.39543 7.99984 9.39543C5.34917 9.39543 2.6665 8.47943 2.6665 6.72876V8.06209Z" fill="#D7D8DD"/>
<path d="M2.6665 10.7288C2.6665 12.4795 5.34917 13.3955 7.99984 13.3955C10.6505 13.3955 13.3332 12.4795 13.3332 10.7288V9.39551C13.3332 11.1462 10.6505 12.0622 7.99984 12.0622C5.34917 12.0622 2.6665 11.1462 2.6665 9.39551V10.7288Z" fill="#D7D8DD"/>
</svg>
