<svg width="24" height="24" viewBox="0 0 24 24" fill="none" xmlns="http://www.w3.org/2000/svg">
<path d="M16.3151 8.0625L20.2526 12L16.3151 15.9375M9.75 12H20.25M11.25 20.25H4.5C4.30109 20.25 4.11032 20.171 3.96967 20.0303C3.82902 19.8897 3.75 19.6989 3.75 19.5V4.5C3.75 4.30109 3.82902 4.11032 3.96967 3.96967C4.11032 3.82902 4.30109 3.75 4.5 3.75H11.25" stroke="#AFA0BD" stroke-width="2" stroke-linecap="round" stroke-linejoin="round"/>
</svg>
