<svg width="14" height="4" viewBox="0 0 14 4" fill="none" xmlns="http://www.w3.org/2000/svg">
<path fill-rule="evenodd" clip-rule="evenodd" d="M0.833252 1.99992C0.833252 1.63173 1.13173 1.33325 1.49992 1.33325H12.4999C12.8681 1.33325 13.1666 1.63173 13.1666 1.99992C13.1666 2.36811 12.8681 2.66659 12.4999 2.66659H1.49992C1.13173 2.66659 0.833252 2.36811 0.833252 1.99992Z" fill="white" stroke="white" stroke-linecap="round" stroke-linejoin="round"/>
</svg>
